{
  "last5min":[
    [
      "2021.05.14",
      "23:27",
      28286.82,
      28286.82,
      28281.82,
      28281.82,
      6
    ],
    [
      "2021.05.14",
      "23:28",
      28284.82,
      28286.82,
      28281.82,
      28286.82,
      11
    ],
    [
      "2021.05.14",
      "23:29",
      28283.15,
      28283.15,
      28276.82,
      28276.82,
      5
    ],
    [
      "2021.05.14",
      "23:30",
      28280.98,
      28300.98,
      28280.98,
      28291.82,
      17
    ],
    [
      "2021.05.14",
      "23:31",
      28291.82,
      28291.82,
      28286.82,
      28286.82,
      8
    ]
  ],
  "ask":28543.66,
  "bid":28536.15,
  "spread":6
}