202012242210,26622.5
202012242215,26627.5
202012242220,26627.5
202012242230,26627.5
202012242235,26627.5
202012242240,26627.5
202012242245,26627.5
202012242250,26627.5
202012242255,26632.5
202012242300,26637.5
202012242305,26637.5
202012242310,26635.0
202012242315,26637.5
202012242320,26637.5
202012242325,26637.5
202012242330,26632.5
202012242335,26637.5
202012242340,26637.5
202012242345,26637.5
202012242350,26637.5
202012242355,26637.5
202012250000,26637.5
202012250005,26637.5
202012250010,26647.5
202012250015,26647.5
202012250020,26642.5
202012250025,26642.5
202012250030,26642.5
202012250035,26637.5
202012250040,26637.5
202012250045,26637.5
202012250050,26637.5
202012250055,26637.5
202012250100,26627.5
202012250219,26602.5
202012250222,26602.5
202012250225,26602.5
