202012242210,1773.75
202012242215,1773.75
202012242220,1773.75
202012242230,1773.75
202012242235,1774.25
202012242240,1774.25
202012242245,1774.25
202012242250,1774.25
202012242255,1774.25
202012242300,1774.75
202012242305,1774.75
202012242310,1774.25
202012242315,1774.75
202012242320,1774.75
202012242325,1774.75
202012242330,1773.75
202012242335,1774.25
202012242340,1774.25
202012242345,1774.25
202012242350,1774.25
202012242355,1774.25
202012250000,1774.25
202012250005,1774.25
202012250010,1775.25
202012250015,1775.25
202012250020,1774.75
202012250025,1774.75
202012250030,1774.75
202012250035,1774.25
202012250040,1774.25
202012250045,1774.25
202012250050,1774.25
202012250055,1774.25
202012250100,1773.75
202012250219,1773.25
202012250222,1773.25
202012250225,1773.25
