code,fromDate,possibility,price0,price1,price2,refPrice,result,test,training
9433,2019-07-22,0.6946442845723422,2828,2889,2923,2889,0,1251,5002
8035,2019-07-22,0.6445054945,16811,17172,17378,17172,0,1820,7279
9984,2019-07-22,0.6297010608,5056,5165,5226,5165,0,1037,4148
9983,2019-07-22,0.6273234201,67012,68450,69271,68450,0,1076,4302
